<?xml version="1.0" encoding="UTF-8"?>
<testng-results skipped="0" failed="0" total="2" passed="2">
  <reporter-output>
  </reporter-output>
  <suite name="Suite" duration-ms="84636" started-at="2019-11-26T07:05:13Z" finished-at="2019-11-26T07:06:37Z">
    <groups>
      <group name="cucumber">
        <method signature="AbstractTestNGCucumberTests.feature(cucumber.api.testng.CucumberFeatureWrapper)[pri:0, instance:runner.RunCuke@13fee20c]" name="feature" class="cucumber.api.testng.AbstractTestNGCucumberTests"/>
      </group> <!-- cucumber -->
    </groups>
    <test name="Test" duration-ms="84636" started-at="2019-11-26T07:05:13Z" finished-at="2019-11-26T07:06:37Z">
      <class name="runner.RunCuke">
        <test-method status="PASS" signature="setUpClass()[pri:0, instance:runner.RunCuke@13fee20c]" name="setUpClass" is-config="true" duration-ms="418" started-at="2019-11-25T23:05:13Z" finished-at="2019-11-25T23:05:13Z">
          <reporter-output>
          </reporter-output>
        </test-method> <!-- setUpClass -->
        <test-method status="PASS" signature="setup()[pri:0, instance:runner.RunCuke@13fee20c]" name="setup" is-config="true" duration-ms="363" started-at="2019-11-25T23:05:13Z" finished-at="2019-11-25T23:05:13Z">
          <reporter-output>
          </reporter-output>
        </test-method> <!-- setup -->
        <test-method status="PASS" signature="feature(cucumber.api.testng.CucumberFeatureWrapper)[pri:0, instance:runner.RunCuke@13fee20c]" name="feature" duration-ms="44304" started-at="2019-11-25T23:05:14Z" description="Runs Cucumber Feature" data-provider="features" finished-at="2019-11-25T23:05:58Z">
          <params>
            <param index="0">
              <value>
                <![CDATA[Accept test validation for Search cars page]]>
              </value>
            </param>
          </params>
          <reporter-output>
          </reporter-output>
        </test-method> <!-- feature -->
        <test-method status="PASS" signature="feature(cucumber.api.testng.CucumberFeatureWrapper)[pri:0, instance:runner.RunCuke@13fee20c]" name="feature" duration-ms="37335" started-at="2019-11-25T23:05:58Z" description="Runs Cucumber Feature" data-provider="features" finished-at="2019-11-25T23:06:35Z">
          <params>
            <param index="0">
              <value>
                <![CDATA[Acceptance testing to validate Search Cars Page is working.]]>
              </value>
            </param>
          </params>
          <reporter-output>
          </reporter-output>
        </test-method> <!-- feature -->
        <test-method status="PASS" signature="tearDownClass()[pri:0, instance:runner.RunCuke@13fee20c]" name="tearDownClass" is-config="true" duration-ms="2064" started-at="2019-11-25T23:06:35Z" finished-at="2019-11-25T23:06:37Z">
          <reporter-output>
          </reporter-output>
        </test-method> <!-- tearDownClass -->
      </class> <!-- runner.RunCuke -->
    </test> <!-- Test -->
  </suite> <!-- Suite -->
</testng-results>
