C:\Users\Admin\cucumber\eclipse-workspace\CucumberPageObjecs\src\test\java\runner\RunCuke.java
C:\Users\Admin\cucumber\eclipse-workspace\CucumberPageObjecs\src\test\java\steps\UsedCarSearchSteps.java
C:\Users\Admin\cucumber\eclipse-workspace\CucumberPageObjecs\src\test\java\steps\AfterActions.java
C:\Users\Admin\cucumber\eclipse-workspace\CucumberPageObjecs\src\test\java\steps\SearchCarsSteps.java
C:\Users\Admin\cucumber\eclipse-workspace\CucumberPageObjecs\src\test\java\steps\BeforeActions.java
