C:\Users\Admin\cucumber\eclipse-workspace\CucumberPageObjecs\src\main\java\pages\actions\UsedCarsSearchPageActions.java
C:\Users\Admin\cucumber\eclipse-workspace\CucumberPageObjecs\src\main\java\pages\actions\CarsSearchPageActions.java
C:\Users\Admin\cucumber\eclipse-workspace\CucumberPageObjecs\src\main\java\utils\SeleniumDriver.java
C:\Users\Admin\cucumber\eclipse-workspace\CucumberPageObjecs\src\main\java\pages\locators\CarsGuideHomePageLocators.java
C:\Users\Admin\cucumber\eclipse-workspace\CucumberPageObjecs\src\main\java\pages\locators\CarsSearchPageLocators.java
C:\Users\Admin\cucumber\eclipse-workspace\CucumberPageObjecs\src\main\java\pages\actions\CarsGuideHomePageActions.java
C:\Users\Admin\cucumber\eclipse-workspace\CucumberPageObjecs\src\main\java\pages\locators\UsedCarsSearchPageLocators.java
